{
  "description": "",
  "root": "callComponentLoaderInitOpen",
  "actions": {
    "callComponentLoaderInitOpen": {
      "module": "vb/action/builtin/callComponentMethodAction",
      "parameters": {
        "component": "{{ document.getElementById('loader_init') }}",
        "method": "open"
      },
      "outcomes": {
        "success": "callFunctionConvertirFecha"
      }
    },
    "assignVariablesRequestBillsComplete": {
      "module": "vb/action/builtin/assignVariablesAction",
      "parameters": {
        "$page.variables.Request_BillsComplete": {
          "source": {
            "P_BILL_NUMBER": "{{ $page.variables.P_BILL_NUMBER }}",
            "P_FECHA_FINAL": "{{ $chain.results.callFunctionConvertirFecha2 }}",
            "P_FECHA_INICIAL": "{{ $chain.results.callFunctionConvertirFecha }}"
          },
          "reset": "none",
          "auto": "always"
        }
      },
      "outcomes": {
        "success": "callRestPostXXESGARIGETBILLSOTM1GetBillsOTM"
      }
    },
    "fireNotification": {
      "module": "vb/action/builtin/fireNotificationEventAction",
      "parameters": {
        "target": "leaf",
        "summary": "[[ $chain.results.callRestPostXXESGARIGETBILLSOTM1GetBillsOTM.message.summary ]]",
        "type": "error",
        "displayMode": "persist"
      }
    },
    "callRestPostXXESGARIGETBILLSOTM1GetBillsOTM": {
      "module": "vb/action/builtin/restAction",
      "parameters": {
        "endpoint": "GetBillsCartasOTM/postXXESGARI_GET_BILLS_OTM1_0GetBillsOTM",
        "body": "{{ $page.variables.Request_BillsComplete }}"
      },
      "outcomes": {
        "failure": "callComponentLoaderInitClose",
        "success": "callFunctionPaginador"
      }
    },
    "assignVariables": {
      "module": "vb/action/builtin/assignVariablesAction",
      "parameters": {
        "$page.variables.BillsCompletePDP": {
          "source": "{{ $chain.results.callFunctionPaginador }}"
        }
      },
      "outcomes": {
        "success": "callComponentLoaderInitClose2"
      }
    },
    "callComponentLoaderInitClose": {
      "module": "vb/action/builtin/callComponentMethodAction",
      "parameters": {
        "component": "{{ document.getElementById('loader_init') }}",
        "method": "close"
      },
      "outcomes": {
        "success": "fireNotification"
      }
    },
    "callFunctionPaginador": {
      "module": "vb/action/builtin/callModuleFunctionAction",
      "parameters": {
        "module": "[[ $functions ]]",
        "functionName": "paginador",
        "params": [
          "{{ $chain.results.callRestPostXXESGARIGETBILLSOTM1GetBillsOTM.body.G_1 }}"
        ]
      },
      "outcomes": {
        "success": "assignVariables"
      }
    },
    "callComponentLoaderInitClose2": {
      "module": "vb/action/builtin/callComponentMethodAction",
      "parameters": {
        "component": "{{ document.getElementById('loader_init') }}",
        "method": "close"
      }
    },
    "callFunctionConvertirFecha": {
      "module": "vb/action/builtin/callModuleFunctionAction",
      "parameters": {
        "module": "[[ $functions ]]",
        "functionName": "convertirFecha",
        "params": [
          "{{ $page.variables.P_FECHA_INICIAL }}"
        ]
      },
      "outcomes": {
        "success": "callFunctionConvertirFecha2"
      }
    },
    "callFunctionConvertirFecha2": {
      "module": "vb/action/builtin/callModuleFunctionAction",
      "parameters": {
        "module": "[[ $functions ]]",
        "functionName": "convertirFecha2",
        "params": [
          "{{ $page.variables.P_FECHA_FINAL }}"
        ]
      },
      "outcomes": {
        "success": "assignVariablesRequestBillsComplete"
      }
    }
  },
  "variables": {}
}