{
    "fields": [
        {
            "type": "number",
            "name": "id",
            "internal": true,
            "key": true,
            "oid": "2ee3ea9c-72b1-463e-8d68-dda41545fa10",
            "required": true,
            "unique": true,
            "displayLabel": "Id",
            "searchable": false
        },
        {
            "type": "datetime",
            "name": "creationDate",
            "internal": true,
            "oid": "43c6c495-23c2-4094-821d-cce0250920e7",
            "displayLabel": "Created"
        },
        {
            "type": "datetime",
            "name": "lastUpdateDate",
            "internal": true,
            "oid": "6fa9a5bf-4da5-42ff-ac2d-dbd6b52970f2",
            "displayLabel": "Last Updated"
        },
        {
            "type": "string",
            "name": "createdBy",
            "internal": true,
            "oid": "185bc4a8-bf9b-4e85-bbdc-3c10ca86b2f0",
            "displayLabel": "Created By"
        },
        {
            "type": "string",
            "name": "lastUpdatedBy",
            "internal": true,
            "oid": "6dc97356-30f9-4c3e-9d50-2d66694ea3dd",
            "displayLabel": "Last Updated By"
        },
{
            "type": "number",
            "hidden": true,
            "name": "abcsChangeNumber",
            "internal": true,
            "oid": "c12e2665-42be-4e99-bc16-cea2d2046952",
            "displayLabel": "<internal>"
        },
        {
            "type": "number",
            "name": "lNea",
            "oid": "69769265-862f-401d-8057-c1f8211442f4",
            "displayLabel": "Línea"
        }        ,
        {
            "type": "string",
            "name": "articulo",
            "oid": "7e0925e9-7dbb-42be-8280-aa565a7aa7c5",
            "displayLabel": "Articulo"
        }        ,
        {
            "type": "string",
            "name": "descripcion",
            "oid": "4e539bef-f484-44c2-8e70-d70a2fe18650",
            "displayLabel": "Descripcion"
        }        ,
        {
            "type": "string",
            "name": "lineaNota",
            "oid": "1c3589cf-c4fb-4450-9aff-b95262b365b3",
            "displayLabel": "LineaNota"
        }        ,
        {
            "type": "string",
            "name": "unidadMedida",
            "oid": "d02827f9-a56b-435b-ba0a-16bfdd0fb60a",
            "displayLabel": "UnidadMedida"
        }        ,
        {
            "type": "number",
            "name": "cantidad",
            "oid": "ab35a65b-27a8-4931-af05-39d2a60da030",
            "displayLabel": "Cantidad"
        }        ,
        {
            "type": "number",
            "name": "precioUnitario",
            "oid": "e3f3b5c0-9916-4eb0-9653-43fb74e42371",
            "displayLabel": "PrecioUnitario"
        }        ,
        {
            "type": "number",
            "name": "importe",
            "oid": "d35fd973-e5db-4bbb-a7c9-215ca845b333",
            "displayLabel": "Importe"
        }
    ],
    "name": "BillDetail",
    "oid": "58623290-8188-4727-8edb-471058900b1b",
    "displayLabel": "BillDetail"
}