{
    "code": "EXITO",
    "detail": "EL PROCESO SE EJECUTO CON EXITO",
    "G_1": [
        {
            "invoiceXid": "20230206-0001",
            "invoiceNumber": "ESGARIHOLDING-000227",
            "invoiceDate": "2023-02-06T21:34:42Z",
            "servprovAliasValue": "ESGARI.ESGARIHOLDING",
            "netAmountDue": "990.0"
        }
    ]
}