{
  "description": "",
  "root": "forEachInKeys",
  "actions": {
    "callFunctionARRAYSbILLINGS": {
      "module": "vb/action/builtin/callModuleFunctionAction",
      "parameters": {
        "module": "[[ $functions ]]",
        "functionName": "aRRAYSbILLINGS",
        "params": [
          "{{ $variables.keys[$current.index] }}"
        ]
      },
      "outcomes": {
        "success": "callFunctionArrayFE"
      }
    },
    "forEachInKeys": {
      "module": "vb/action/builtin/forEachAction",
      "parameters": {
        "actionId": "callFunctionARRAYSbILLINGS",
        "items": "{{ $variables.keys }}"
      },
      "outcomes": {
        "success": "assignVariablesArraysIdsFE"
      }
    },
    "callFunctionArrayFE": {
      "module": "vb/action/builtin/callModuleFunctionAction",
      "parameters": {
        "module": "[[ $functions ]]",
        "functionName": "arrayFE",
        "params": [
          "{{ $variables.keys }}"
        ]
      }
    },
    "assignVariablesArraysIdsFE": {
      "module": "vb/action/builtin/assignVariablesAction",
      "parameters": {
        "$page.variables.ArraysIdsFE": {
          "source": "{{ $chain.results.forEachInKeys }}",
          "reset": "empty"
        }
      },
      "outcomes": {
        "success": "callFunctionArrayFinal"
      }
    },
    "callFunctionArrayFinal": {
      "module": "vb/action/builtin/callModuleFunctionAction",
      "parameters": {
        "module": "[[ $functions ]]",
        "functionName": "arrayFinal",
        "params": [
          "{{ $page.variables.ArraysIdsFE }}"
        ]
      },
      "outcomes": {
        "success": "callFunctionGetIdArrya"
      }
    },
    "callFunctionCreateObjectArray": {
      "module": "vb/action/builtin/callModuleFunctionAction",
      "parameters": {
        "module": "[[ $functions ]]",
        "functionName": "createObjectArray",
        "params": [
          "{{ $chain.results.callFunctionGetIdArrya }}",
          "{{ $chain.results.callFunctionArrayFinal }}"
        ]
      }
    },
    "callFunctionGetIdArrya": {
      "module": "vb/action/builtin/callModuleFunctionAction",
      "parameters": {
        "module": "[[ $functions ]]",
        "functionName": "GetIdArrya",
        "params": [
          "{{ $page.variables.DataSinglePagination }}"
        ]
      },
      "outcomes": {
        "success": "callFunctionCreateObjectArray"
      }
    }
  },
  "variables": {
    "keys": {
      "required": true,
      "type": "any[]",
      "input": "fromCaller"
    },
    "selected": {
      "required": true,
      "type": "any",
      "input": "fromCaller"
    }
  }
}