{
    "openapi": "3.0.0",
    "info": {
        "title": "Ic Api",
        "version": "1.0.0"
    },
    "servers": [
        {
            "url": "https://esgari-oic-idkwwmyitvob-ia.integration.ocp.oraclecloud.com:443/ic/api/integration/v1/flows/rest/BSS_PAGINA_RECEIV_VB_TEST/1.0",
            "description": "Ic Api",
            "x-vb": {
                "authentication": {
                    "authenticated": {
                        "type": "propagate"
                    }
                }
            }
        }
    ],
    "paths": {
        "/GetPaginationReceivable": {
            "get": {
                "operationId": "getGetPaginationReceivable",
                "responses": {
                    "default": {
                        "description": "Response for default",
                        "content": {
                            "application/json": {
                                "schema": {
                                    "$ref": "#/components/schemas/GetGetPaginationReceivable"
                                },
                                "examples": {
                                    "vb": {
                                        "summary": "Example stored by VB User",
                                        "externalValue": "./examples/getGetPaginationReceivable/response_default_application_json_vb.json"
                                    }
                                }
                            }
                        }
                    }
                },
                "x-vb": {
                    "actionHint": "getMany"
                }
            }
        }
    },
    "components": {
        "schemas": {
            "GetGetPaginationReceivable": {
                "type": "object",
                "properties": {
                    "invoices": {
                        "type": "array",
                        "items": {
                            "type": "object",
                            "properties": {
                                "CustomerTransactionId": {
                                    "type": "integer"
                                },
                                "DueDate": {
                                    "type": "string"
                                },
                                "DocumentNumber": {
                                    "type": "integer"
                                },
                                "TransactionNumber": {
                                    "type": "string"
                                },
                                "TransactionDate": {
                                    "type": "string"
                                },
                                "TransactionType": {
                                    "type": "string"
                                },
                                "TransactionSource": {
                                    "type": "string"
                                },
                                "BillToCustomerNumber": {
                                    "type": "string"
                                },
                                "LegalEntityIdentifier": {
                                    "type": "string"
                                }
                            }
                        }
                    }
                }
            }
        }
    }
}