{
  "description": "",
  "root": "callComponentLoaderInitOpen",
  "actions": {
    "fireNotification": {
      "module": "vb/action/builtin/fireNotificationEventAction",
      "parameters": {
        "target": "leaf",
        "summary": "Error",
        "type": "error",
        "displayMode": "persist"
      }
    },
    "callRestPostBSSCANCELINVOICMANAGELOTE1CancelBilling": {
      "module": "vb/action/builtin/restAction",
      "parameters": {
        "endpoint": "ics2/postBSS_CANCEL_INVOIC_MANAGE_LOTE1_0CancelBilling",
        "body": "{{ $page.variables.BilngsCancelacionLotes }}"
      },
      "outcomes": {
        "failure": "fireNotification",
        "success": "callComponentLoaderInitClose"
      }
    },
    "fireNotification3": {
      "module": "vb/action/builtin/fireNotificationEventAction",
      "parameters": {
        "target": "leaf",
        "type": "confirmation",
        "summary": "Factura cancelación",
        "message": "Proceso de cancelación iniciado",
        "displayMode": "transient"
      },
      "description": "Proceso iniciado correctamente"
    },
    "callComponentLoaderInitOpen": {
      "module": "vb/action/builtin/callComponentMethodAction",
      "parameters": {
        "component": "{{ document.getElementById('loader_init') }}",
        "method": "open"
      },
      "outcomes": {
        "success": "callRestPostBSSCANCELINVOICMANAGELOTE1CancelBilling"
      }
    },
    "callComponentLoaderInitClose": {
      "module": "vb/action/builtin/callComponentMethodAction",
      "parameters": {
        "component": "{{ document.getElementById('loader_init') }}",
        "method": "close"
      },
      "outcomes": {
        "success": "fireNotification3"
      }
    }
  },
  "variables": {}
}