{
  "root": "PaginatorBillings",
  "description": "",
  "variables": {},
  "actions": {
    "fireNotification": {
      "module": "vb/action/builtin/fireNotificationEventAction",
      "parameters": {
        "target": "leaf",
        "summary": "[[ $chain.results.PaginatorBillings.message.summary ]]",
        "type": "error",
        "displayMode": "persist"
      }
    },
    "PaginatorBillings": {
      "module": "vb/action/builtin/restAction",
      "parameters": {
        "endpoint": "businessObjects/getall_Billings",
        "uriParams": {
          "limit": 100000
        }
      },
      "outcomes": {
        "failure": "fireNotification",
        "success": "assignVariablesMyADPBillings"
      }
    },
    "assignVariablesMyADPBillings": {
      "module": "vb/action/builtin/assignVariablesAction",
      "parameters": {
        "$page.variables.myADPBillings": {
          "source": {
            "data": "{{ $chain.results.PaginatorBillings.body.items }}"
          },
          "reset": "none",
          "auto": "always"
        }
      },
      "outcomes": {
        "success": "callFunctionCreateProviderPagination"
      }
    },
    "callFunctionCreateProviderPagination": {
      "module": "vb/action/builtin/callModuleFunctionAction",
      "parameters": {
        "module": "[[ $functions ]]",
        "functionName": "createProviderPagination",
        "params": [
          "{{ $chain.results.PaginatorBillings.body.items }}"
        ]
      },
      "outcomes": {
        "success": "assignVariablesMyPDPBillings"
      }
    },
    "assignVariablesMyPDPBillings": {
      "module": "vb/action/builtin/assignVariablesAction",
      "parameters": {
        "$page.variables.myPDPBillings": {
          "source": "{{ $chain.results.callFunctionCreateProviderPagination }}"
        }
      }
    }
  }
}