{
  "description": "",
  "root": "forEachInKeys",
  "actions": {
    "forEachInKeys": {
      "module": "vb/action/builtin/forEachAction",
      "parameters": {
        "items": "{{ $variables.keys }}",
        "actionId": "callFunctionARRAYSbILLINGS"
      },
      "outcomes": {
        "success": "assignVariables"
      }
    },
    "assignVariables": {
      "module": "vb/action/builtin/assignVariablesAction",
      "parameters": {
        "$page.variables.ArraysIdsFE": {
          "source": "{{ $chain.results.forEachInKeys }}"
        }
    },
      "outcomes": {
        "success": "callFunctionArrayFinal"
      }
    },
    "callFunctionARRAYSbILLINGS": {
      "module": "vb/action/builtin/callModuleFunctionAction",
      "parameters": {
        "module": "[[ $functions ]]",
        "functionName": "aRRAYSbILLINGS",
        "params": [
          "{{ $variables.keys[$current.index] }}"
        ]
      },
      "outcomes": {
        "success": "callFunctionArrayFE"
      }
    },
    "callFunctionArrayFE": {
      "module": "vb/action/builtin/callModuleFunctionAction",
      "parameters": {
        "module": "[[ $functions ]]",
        "functionName": "arrayFE",
        "params": [
          "{{ $variables.keys }}"
        ]
      }
    },
    "callFunctionArrayFinal": {
      "module": "vb/action/builtin/callModuleFunctionAction",
      "parameters": {
        "module": "[[ $functions ]]",
        "functionName": "arrayFinal",
        "params": [
          "{{ $page.variables.ArraysIdsFE }}"
        ]
      },
      "outcomes": {
        "success": "callFunctionGetIdArrya"
      }
    },
    "callFunctionGetIdArrya": {
      "module": "vb/action/builtin/callModuleFunctionAction",
      "parameters": {
        "module": "[[ $functions ]]",
        "functionName": "GetIdArrya",
        "params": [
          "{{ $page.variables.myPDPBillings }}"
        ]
      },
      "outcomes": {
        "success": "resetVariablesBilngsCancelacionLotes"
      }
    },
    "callFunctionCreateObjectArray": {
      "module": "vb/action/builtin/callModuleFunctionAction",
      "parameters": {
        "module": "[[ $functions ]]",
        "functionName": "createObjectArray",
        "params": [
          "{{ $chain.results.callFunctionGetIdArrya }}",
          "{{ $chain.results.callFunctionArrayFinal }}"
        ]
      },
      "outcomes": {
        "success": "assignVariablesBilngsCancelacionLotes"
      }
    },
    "assignVariablesBilngsCancelacionLotes": {
      "module": "vb/action/builtin/assignVariablesAction",
      "parameters": {
        "$page.variables.BilngsCancelacionLotes": {
          "source": {
            "document": "{{ $chain.results.callFunctionCreateObjectArray }}"
          },
          "reset": "none",
          "auto": "always"
        }
      }
    },
    "resetVariablesBilngsCancelacionLotes": {
      "module": "vb/action/builtin/resetVariablesAction",
      "parameters": {
        "variables": [
          "$page.variables.BilngsCancelacionLotes"
        ]
      },
      "outcomes": {
        "success": "callFunctionCreateObjectArray"
      }
    }
  },
  "variables": {
    "keys": {
      "required": true,
      "type": "any[]",
      "input": "fromCaller"
    },
    "selected": {
      "required": true,
      "type": "any",
      "input": "fromCaller"
    }
  }
}