{
  "description": "",
  "root": "forEachInKeys",
  "actions": {
    "forEachInKeys": {
      "module": "vb/action/builtin/forEachAction",
      "parameters": {
        "actionId": "callFunctionARRAYSbILLINGS",
        "items": "{{ $variables.keys }}"
      },
      "outcomes": {
        "success": "assignVariablesArraysIdsFERecepits"
      }
    },
    "callFunctionARRAYSbILLINGS": {
      "module": "vb/action/builtin/callModuleFunctionAction",
      "parameters": {
        "module": "[[ $functions ]]",
        "functionName": "aRRAYSbILLINGS",
        "params": [
          "{{ $variables.keys[$current.index] }}"
        ]
      },
      "outcomes": {
        "success": "callFunctionArrayFE"
      }
    },
    "callFunctionArrayFE": {
      "module": "vb/action/builtin/callModuleFunctionAction",
      "parameters": {
        "module": "[[ $functions ]]",
        "functionName": "arrayFE",
        "params": [
          "{{ $variables.keys }}"
        ]
      }
    },
    "assignVariablesArraysIdsFERecepits": {
      "module": "vb/action/builtin/assignVariablesAction",
      "parameters": {
        "$page.variables.ArraysIdsFERecepits": {
          "source": "{{ $chain.results.forEachInKeys }}"
        }
      },
      "outcomes": {
        "success": "callFunctionArrayFinal"
      }
    },
    "callFunctionArrayFinal": {
      "module": "vb/action/builtin/callModuleFunctionAction",
      "parameters": {
        "module": "[[ $functions ]]",
        "functionName": "arrayFinal",
        "params": [
          "{{ $page.variables.ArraysIdsFERecepits }}"
        ]
      },
      "outcomes": {
        "success": "callFunctionGetIdArryaReceipt"
      }
    },
    "assignVariablesReceiptsCancelacion": {
      "module": "vb/action/builtin/assignVariablesAction",
      "parameters": {
        "$page.variables.ReceiptsCancelacion": {
          "source": {
            "document": "{{ $chain.results.callFunctionCreateObjectArrayReceipt }}"
          },
          "reset": "none",
          "auto": "always"
        }
      }
    },
    "callFunctionCreateObjectArrayReceipt": {
      "module": "vb/action/builtin/callModuleFunctionAction",
      "parameters": {
        "module": "[[ $functions ]]",
        "functionName": "createObjectArrayReceipt",
        "params": [
          "{{ $chain.results.callFunctionGetIdArryaReceipt }}",
          "{{ $chain.results.callFunctionArrayFinal }}"
        ]
      },
      "outcomes": {
        "success": "assignVariablesReceiptsCancelacion"
      }
    },
    "callFunctionGetIdArryaReceipt": {
      "module": "vb/action/builtin/callModuleFunctionAction",
      "parameters": {
        "module": "[[ $functions ]]",
        "functionName": "GetIdArryaReceipt",
        "params": [
          "{{ $page.variables.myPDPReceipts }}"
        ]
      },
      "outcomes": {
        "success": "resetVariablesReceiptsCancelacion"
      }
    },
    "resetVariablesReceiptsCancelacion": {
      "module": "vb/action/builtin/resetVariablesAction",
      "parameters": {
        "variables": [
          "$page.variables.ReceiptsCancelacion"
        ]
      },
      "outcomes": {
        "success": "callFunctionCreateObjectArrayReceipt"
      }
    }
  },
  "variables": {
    "keys": {
      "required": true,
      "type": "any[]",
      "input": "fromCaller"
    },
    "selected": {
      "required": true,
      "type": "any",
      "input": "fromCaller"
    }
  }
}