{
  "description": "",
  "root": "forEachInKeys",
  "actions": {

    "forEachInKeys": {
      "module": "vb/action/builtin/forEachAction",
      "parameters": {
        "actionId": "callFunctionARRAYSbILLINGS",
        "items": "{{ $variables.keys }}"
      },
      "outcomes": {
        "success": "assignVariablesArraysIdsFEMemos"
      }
    },
    "callFunctionARRAYSbILLINGS": {
      "module": "vb/action/builtin/callModuleFunctionAction",
      "parameters": {
        "module": "[[ $functions ]]",
        "functionName": "aRRAYSbILLINGS",
        "params": [
          "$variables.keys[$current.index]"
        ]
      },
      "outcomes": {
        "success": "callFunctionArrayFE"
      }
    },
    "callFunctionArrayFE": {
      "module": "vb/action/builtin/callModuleFunctionAction",
      "parameters": {
        "module": "[[ $functions ]]",
        "functionName": "arrayFE",
        "params": [
          "{{ $variables.keys }}"
        ]
      }
    },
    "assignVariablesArraysIdsFEMemos": {
      "module": "vb/action/builtin/assignVariablesAction",
      "parameters": {
        "$page.variables.ArraysIdsFEMemos": {
          "source": "{{ $chain.results.forEachInKeys }}"
        }
      },
      "outcomes": {
        "success": "callFunctionArrayFinal"
      }
    },
    "callFunctionArrayFinal": {
      "module": "vb/action/builtin/callModuleFunctionAction",
      "parameters": {
        "module": "[[ $functions ]]",
        "functionName": "arrayFinal",
        "params": [
          "{{ $page.variables.ArraysIdsFEMemos }}"
        ]
      },
      "outcomes": {
        "success": "callFunctionGetIdArrya"
      }
    },
    "callFunctionGetIdArrya": {
      "module": "vb/action/builtin/callModuleFunctionAction",
      "parameters": {
        "module": "[[ $functions ]]",
        "functionName": "GetIdArrya",
        "params": [
          "{{ $page.variables.myPDPMemos }}"
        ]
      },
      "outcomes": {
        "success": "resetVariablesMemosCancelacion"
      }
    },
    "callFunctionCreateObjectArrayMemos": {
      "module": "vb/action/builtin/callModuleFunctionAction",
      "parameters": {
        "module": "[[ $functions ]]",
        "functionName": "createObjectArrayMemos",
        "params": [
          "{{ $chain.results.callFunctionGetIdArrya }}",
          "{{ $chain.results.callFunctionArrayFinal }}"
        ]
      },
      "outcomes": {
        "success": "assignVariablesMemosCancelacion"
      }
    },
    "assignVariablesMemosCancelacion": {
      "module": "vb/action/builtin/assignVariablesAction",
      "parameters": {
        "$page.variables.MemosCancelacion": {
          "source": {
            "document": "{{ $chain.results.callFunctionCreateObjectArrayMemos }}"
          },
          "reset": "none",
          "auto": "always"
        }
      }
    },
    "resetVariablesMemosCancelacion": {
      "module": "vb/action/builtin/resetVariablesAction",
      "parameters": {
        "variables": [
          "$page.variables.MemosCancelacion"
        ]
      },
      "outcomes": {
        "success": "callFunctionCreateObjectArrayMemos"
      }
    }
  },
  "variables": {
    "keys": {
      "required": true,
      "type": "any[]",
      "input": "fromCaller"
    },
    "selected": {
      "required": true,
      "type": "any",
      "input": "fromCaller"
    }
  }
}