{
  "title": "Facturas",
  "description": "",
  "variables": {
    "ArraysIdsFE": {
      "type": "object[]"
    },
    "billingListSDP": {
      "type": "vb/ServiceDataProvider",
      "defaultValue": {
        "endpoint": "businessObjects/getall_Billing",
        "keyAttributes": "id",
        "itemsPath": "items",
        "responseType": "getallBillingResponse3"
      }
    },
    "billingsFacturarListSDP": {
      "type": "vb/ServiceDataProvider",
      "defaultValue": {
        "endpoint": "businessObjects/getall_BillingsFacturar",
        "keyAttributes": "id",
        "itemsPath": "items",
        "responseType": "getallBillingsFacturarResponse",
        "filterCriterion": {
          "op": "$or",
          "criteria": [
            {
              "op": "$co",
              "attribute": "billToCustomerName",
              "value": "{{ $variables.search_invioce }}"
            },
            {
              "op": "$co",
              "attribute": "createdByInvoice",
              "value": "{{ $variables.search_invioce }}"
            },
            {
              "op": "$co",
              "attribute": "timbradoInterfaceEstatus",
              "value": "{{ $variables.search_invioce }}"
            },
            {
              "op": "$co",
              "attribute": "creationDateInvoice",
              "value": "{{ $variables.search_invioce }}"
            },
            {
              "op": "$co",
              "attribute": "transactionDate",
              "value": "{{ $variables.search_invioce }}"
            }
          ]
        }
      }
    },
    "BusPrueba": {
      "type": "string"
    },
    "BUSQUEDAPRUEBA": {
      "type": "string"
    },
    "DataProviderPagination": {
      "type": "vb/ArrayDataProvider2",
      "defaultValue": {
        "itemType": "get_Pagination",
        "keyAttributes": "id"
      }
    },
    "DataSinglePagination": {
      "type": "any",
      "rateLimit": {
        "timeout": 900
      }
    },
    "getGetPaginationReceivableListSDP": {
      "type": "vb/ServiceDataProvider",
      "defaultValue": {
        "endpoint": "icApi/getGetPaginationReceivable",
        "keyAttributes": "BillToCustomerNumber",
        "itemsPath": "invoices",
        "responseType": "getGetPaginationReceivableResponse"
      }
    },
    "getInvoicesOracle": {
      "type": "get_InvoicingOracle",
      "rateLimit": {
        "timeout": 200
      }
    },
    "invoicingOracleListSDP": {
      "type": "vb/ServiceDataProvider",
      "defaultValue": {
        "endpoint": "businessObjects/getall_InvoicingOracle",
        "keyAttributes": "id",
        "itemsPath": "items",
        "responseType": "getallInvoicingOracleResponse3",
        "filterCriterion": "{{ $variables.BusPrueba }}"
      }
    },
    "invoicingOracleListSDP2": {
      "type": "vb/ServiceDataProvider",
      "defaultValue": {
        "endpoint": "businessObjects/getall_InvoicingOracle",
        "keyAttributes": "id",
        "itemsPath": "items",
        "responseType": "getallInvoicingOracleResponse2",
        "filterCriterion": {
          "op": "$or",
          "criteria": [
            {
              "op": "$co",
              "attribute": "billCostumerName",
              "value": "{{ $variables.BUSQUEDAPRUEBA }}"
            },
            {
              "op": "$co",
              "attribute": "custumerTransactionID",
              "value": "{{ $variables.BUSQUEDAPRUEBA }}"
            }
          ]
        }
      },
      "input": "none"
    },
    "memosListSDP": {
      "type": "vb/ServiceDataProvider",
      "defaultValue": {
        "endpoint": "businessObjects/getall_Memos",
        "keyAttributes": "id",
        "itemsPath": "items",
        "responseType": "getallMemosResponse"
      }
    },
    "memosListSDP2": {
      "type": "vb/ServiceDataProvider",
      "defaultValue": {
        "endpoint": "businessObjects/getall_Memos",
        "keyAttributes": "id",
        "itemsPath": "items",
        "responseType": "getallMemosResponse2"
      }
    },
    "oj_table_955044093_1SelectedId": {
      "type": "string",
      "defaultValue": ""
    },
    "paginationListSDP": {
      "type": "vb/ServiceDataProvider",
      "defaultValue": {
        "endpoint": "businessObjects/getall_Pagination",
        "keyAttributes": "id",
        "itemsPath": "items",
        "responseType": "getallPaginationResponse"
      }
    },
    "paginationListSDP2": {
      "type": "vb/ServiceDataProvider",
      "defaultValue": {
        "endpoint": "businessObjects/getall_Pagination",
        "keyAttributes": "id",
        "itemsPath": "items",
        "responseType": "getallPaginationResponse2"
      }
    },
    "search_invioce": {
      "type": "string"
    },
    "SearchPagination": {
      "type": "string"
    },
    "serach_date": {
      "type": "string"
    }

  },
  "metadata": {
    "businessObjectsGetallBillingMetadata": {
      "type": "vb/DynamicLayoutMetadataProviderDescriptor",
      "defaultValue": {
        "endpoint": "businessObjects/getall_Billing",
        "metadataPath": "items"
      }
    },
    "businessObjectsGetallInvoicingOracleMetadata": {
      "type": "vb/DynamicLayoutMetadataProviderDescriptor",
      "defaultValue": {
        "endpoint": "businessObjects/getall_InvoicingOracle",
        "metadataPath": "items"
      }
    }
  },
  "types": {
    "@decorators.get_Billing_Facturacion": {
      "endpoint": "get_Billing",
      "service": "businessObjects",
      "path": "response"
    },
    "@decorators.get_InvoicingOracle": {
      "endpoint": "get_InvoicingOracle",
      "service": "businessObjects",
      "path": "response"
    },
    "@decorators.get_Pagination": {
      "endpoint": "get_Pagination",
      "service": "businessObjects",
      "path": "response"
    },
    "@decorators.getallBillingResponse": {
      "endpoint": "getall_Billing",
      "service": "businessObjects",
      "path": "response"
    },
    "@decorators.getallBillingResponse2": {
      "endpoint": "getall_Billing",
      "service": "businessObjects",
      "path": "response"
    },
    "@decorators.getallBillingResponse3": {
      "endpoint": "getall_Billing",
      "service": "businessObjects",
      "path": "response"
    },
    "@decorators.getallBillingsFacturarResponse": {
      "endpoint": "getall_BillingsFacturar",
      "service": "businessObjects",
      "path": "response"
    },
    "@decorators.getallInvoicingOracleResponse": {
      "endpoint": "getall_InvoicingOracle",
      "service": "businessObjects",
      "path": "response"
    },
    "@decorators.getallInvoicingOracleResponse2": {
      "endpoint": "getall_InvoicingOracle",
      "service": "businessObjects",
      "path": "response"
    },
    "@decorators.getallInvoicingOracleResponse3": {
      "endpoint": "getall_InvoicingOracle",
      "service": "businessObjects",
      "path": "response"
    },
    "@decorators.getallMemosResponse": {
      "endpoint": "getall_Memos",
      "service": "businessObjects",
      "path": "response"
    },
    "@decorators.getallMemosResponse2": {
      "endpoint": "getall_Memos",
      "service": "businessObjects",
      "path": "response"
    },
    "@decorators.getallPaginationResponse": {
      "endpoint": "getall_Pagination",
      "service": "businessObjects",
      "path": "response"
    },
    "@decorators.getallPaginationResponse2": {
      "endpoint": "getall_Pagination",
      "service": "businessObjects",
      "path": "response"
    },
    "@decorators.getGetPaginationReceivableResponse": {
      "endpoint": "getGetPaginationReceivable",
      "service": "icApi",
      "path": "response"
    },
    "get_Billing_Facturacion": {
      "costumer": "string",
      "creationDate": "string",
      "fechaDeFacturaciN": "string",
      "id": "number",
      "lastUpdateDate": "string",
      "noDeFactura": "string",
      "serviceProvider": "string"
    },
    "get_InvoicingOracle": {
      "billCostumerName": "string",
      "creationDate": "string",
      "custumerTransactionID": "string",
      "dueDate": "string",
      "enteredAmount": "string",
      "invoiceStatus": "string",
      "transactionDate": "string",
      "transactionNumber": "string"
    },
    "get_Pagination": {
      "billCostumer": "string",
      "costumerTransacID": "string",
      "created": "string",
      "dueDate": "string",
      "enteredAmount": "string",
      "id": "number",
      "invoiceStatus": "string"
    },
    "getallBillingResponse": {
      "items": [
        {
          "actions": "string",
          "costumer": "string",
          "fechaDeFacturaciN": "string",
          "id": "number",
          "noDeFactura": "string",
          "serviceProvider": "string"
        }
      ]
    },
    "getallBillingResponse2": {
      "items": "object[]"
    },
    "getallBillingResponse3": {
      "items": [
        {
          "costumer": "string",
          "id": "number"
        }
      ]
    },
    "getallBillingsFacturarResponse": {
      "items": [
        {
          "billToCustomerName": "string",
          "createdByInvoice": "string",
          "creationDateInvoice": "string",
          "customerTransactionId": "string",
          "enteredAmount": "string",
          "id": "number",
          "LastUpdateDate": "string",
          "timbradoInterfaceEstatus": "string",
          "transactionDate": "string"
        }
      ]
    },
    "getallInvoicingOracleResponse": {
      "items": "object[]"
    },
    "getallInvoicingOracleResponse2": {
      "items": "object[]"
    },
    "getallInvoicingOracleResponse3": {
      "items": "object[]"
    },
    "getallMemosResponse": {
      "items": [
        {
          "billToCustomerName": "string",
          "createdByCredit": "string",
          "id": "number"
        }
      ]
    },
    "getallMemosResponse2": {
      "items": [
        {
          "billToCustomerName": "string",
          "creationDateCredit": "string",
          "id": "number"
        }
      ]
    },
    "getallPaginationResponse": {
      "items": [
        {
          "billCostumer": "string",
          "costumerTransacID": "string",
          "created": "string",
          "dueDate": "string",
          "enteredAmount": "string",
          "id": "number",
          "invoiceStatus": "string"
        }
      ]
    },
    "getallPaginationResponse2": {
      "items": [
        {
          "billCostumer": "string",
          "id": "number"
        }
      ]
    },
    "getGetPaginationReceivableResponse": {
      "invoices": [
        {
          "BillToCustomerNumber": "string",
          "CustomerTransactionId": "number",
          "DocumentNumber": "number",
          "DueDate": "string",
          "LegalEntityIdentifier": "string",
          "TransactionDate": "string",
          "TransactionNumber": "string",
          "TransactionSource": "string",
          "TransactionType": "string"
        }
      ]
    }

  },
  "eventListeners": {
    "buttonAction": {
      "chains": [
        {
          "chainId": "ButtonActionChain"
        }
      ]
    },
    "buttonAction2": {
      "chains": [
        {
          "chainId": "ButtonActionChain1"
        }
      ]
    },
    "buttonAction3": {
      "chains": [
        {
          "chainId": "ButtonActionChain2"
        }
      ]
    },
    "buttonAction4": {
      "chains": [
        {
          "chainId": "ButtonActionChain4"
        }
      ]
    },
    "buttonClick": {
      "chains": [
        {
          "chainId": "buttonClickChain"
        }
      ]
    },
    "buttonsetValue": {
      "chains": [
        {
          "chainId": "ButtonsetValueChangeChain",
          "parameters": {
            "value": "{{ $event.detail.value }}"
          }
        }
      ]
    },
    "createBillingButtonClicked": {
      "chains": [
        {
          "chainId": "navigateToCreateBillingChain"
        }
      ]
    },
    "deleteMemosButtonClicked": {
      "chains": [
        {
          "chainId": "deleteMemosChain",
          "parameters": {
            "memosId": "[[ $variables.oj_table_955044093_1SelectedId ]]"
          }
        }
      ]
    },
    "deleteMemosButtonClicked2": {
      "chains": [
        {
          "chainId": "deleteMemosChain2",
          "parameters": {
            "memosId": "[[ $variables.oj_table_955044093_1SelectedId ]]"
          }
        }
      ]
    },
    "editBillingButtonClicked": {
      "chains": [
        {
          "chainId": "navigateToEditBillingChain",
          "parameters": {
            "billingId": "[[ $variables.oj_table_955044093_1SelectedId ]]"
          }
        }
      ]
    },
    "inputTextValue": {
      "chains": [
        {
          "chainId": "InputTextValueChangeChain1",
          "parameters": {
            "value": "{{ $event.detail.value }}"
          }
        }
      ]
    },
    "oj_table_955044093_1SelectionChanged": {
      "chains": [
        {
          "chainId": "oj_table_955044093_1ChangeSelectionChain",
          "parameters": {
            "billingId": "[[ $event.detail.value.key || '' ]]"
          }
        }
      ]
    },
    "tableFirstSelectedRow2": {
      "chains": [
        {
          "chainId": "TableFirstSelectedRowChangeChain1",
          "parameters": {
            "rowKey": "{{$event.detail.value.key}}",
            "rowData": "{{$event.detail.value.data}}"
          }
        }
      ]
    },
    "tableSelected": {
      "chains": [
        {
          "chainId": "TableSelectedChangeChain",
          "parameters": {
            "keys": "{{ $event.detail.value.row.values ? Array.from($event.detail.value.row.values()) : [] }}",
            "selected": "{{ $event.detail.value }}"
          }
        }
      ]
    },
    "toggleDrawer": {
      "chains": [
        {
          "chainId": "application:toggleDrawerHandler"
        }
      ]
    },
    "vbEnter": {
      "chains": [
        {
          "parameters": {},
          "chainId": "loadDataPagination"
        }
      ]
    }

  },
  "imports": {
    "components": {
      "oj-avatar": {
        "path": "ojs/ojavatar"
      },
      "oj-button": {
        "path": "ojs/ojbutton"
      },
      "oj-buttonset-many": {
        "path": "ojs/ojbutton"
      },
      "oj-buttonset-one": {
        "path": "ojs/ojbutton"
      },
      "oj-collapsible": {
        "path": "ojs/ojcollapsible"
      },
      "oj-dynamic-table": {
        "path": "oj-dynamic/table/loader"
      },
      "oj-highlight-text": {
        "path": "ojs/ojhighlighttext"
      },
      "oj-input-date": {
        "path": "ojs/ojdatetimepicker"
      },
      "oj-input-search": {
        "path": "ojs/ojinputsearch"
      },
      "oj-input-text": {
        "path": "ojs/ojinputtext"
      },
      "oj-label": {
        "path": "ojs/ojlabel"
      },
      "oj-label-value": {
        "path": "ojs/ojlabelvalue"
      },
      "oj-option": {
        "path": "ojs/ojoption"
      },
      "oj-paging-control": {
        "path": "ojs/ojpagingcontrol"
      },
      "oj-table": {
        "path": "ojs/ojtable"
      },
      "oj-toolbar": {
        "path": "ojs/ojtoolbar"
      }

    }
  },
  "@dt": {
    "chains": {
      "navigateActionChain": {
        "showInDiagram": "full"
      },
      "TableFirstSelectedRowChangeChain1": {
        "showInDiagram": "navigationOnly"
      }
    }
  }
}