{
  "title": "",
  "description": "",
  "variables": {},
  "metadata": {},
  "types": {},
  "eventListeners": {
    "buttonClick": {
      "chains": [
        {
          "chainId": "buttonClickChain"
        }
      ]
    },
    "buttonClick2": {
      "chains": [
        {
          "chainId": "buttonClickChain1"
        }
      ]
    },
    "buttonClick3": {
      "chains": [
        {
          "chainId": "buttonClickChain2"
        }
      ]
    },
    "buttonClick4": {
      "chains": [
        {
          "chainId": "buttonClickChain3"
        }
      ]
    },
    "divClick": {
      "chains": [
        {
          "chainId": "divClickChain"
        }
      ]
    },
    "toggleDrawer": {
      "chains": [
        {
          "chainId": "application:toggleDrawerHandler"
        }
      ]
    }

  },
  "imports": {
    "components": {
      "oj-avatar": {
        "path": "ojs/ojavatar"
      },
      "oj-button": {
        "path": "ojs/ojbutton"
      },
      "oj-highlight-text": {
        "path": "ojs/ojhighlighttext"
      }

    }
  }
}