{
  "layoutTypes": {
    "businessObjects": {
      "kind": "operationRef",
      "serviceId": "businessObjects",
      "operations": [
        "getall_Billing"
      ]
    }
  },
  "layouts": {
    "isDefault": {
      "description": "Default Rule",
      "type": "businessObjects",
      "expression": "default"
    },
    "pruebaDinamica": {
      "type": "businessObjects",
      "layoutType": "table",
      "label": "PruebaDinamica",
      "rules": [
        "isDefault"
      ],
      "layouts": {
        "default": {
          "layoutType": "table",
          "layout": {
            "displayProperties": [
              "costumer",
              "serviceProvider",
              "noDeFactura",
              "creationDate",
              "fechaDeFacturaciN",
              "id"
            ]
          }
        }
      }
    },
    "isDefault2": {
      "description": "Default Rule",
      "type": "businessObjects",
      "expression": "default"
    },
    "facturacionGet": {
      "type": "businessObjects",
      "layoutType": "table",
      "label": "FacturaciónGet",
      "rules": [
        "isDefault2"
      ],
      "layouts": {
        "default": {
          "layoutType": "table",
          "layout": {
            "displayProperties": [
              "costumer",
              "createdBy",
              "creationDate",
              "fechaDeFacturaciN",
              "noDeFactura",
              "id"
            ]
          }
        }
      }
    }
  }
}