{
  "description": "",
  "root": "callComponentLoaderInitOpen",
  "actions": {
    "fireNotification": {
      "module": "vb/action/builtin/fireNotificationEventAction",
      "parameters": {
        "target": "leaf",
        "summary": "[[ $chain.results.callRestPostBssElectronicInvoiceManager.message.summary ]]",
        "type": "error",
        "displayMode": "persist"
      },
      "outcomes": {
        "success": "resetVariablesSelectButtonInv2"
      }
    },
    "callRestPostBssElectronicInvoiceManager": {
      "module": "vb/action/builtin/restAction",
      "parameters": {
        "endpoint": "icApi2/postBssElectronicInvoiceManager",
        "body": "{{ $page.variables.SelectedLotes }}"
      },
      "outcomes": {
        "failure": "callComponentLoaderInitClose2",
        "success": "callComponentLoaderInitClose"
      }
    },
    "fireNotification3": {
      "module": "vb/action/builtin/fireNotificationEventAction",
      "parameters": {
        "target": "leaf",
        "summary": "Factura Timbrado",
        "message": "Proceso de timbrado iniciado",
        "type": "confirmation",
        "displayMode": "transient"
      },
      "description": "Proceso iniciado correctamente",
      "outcomes": {
        "success": "resetVariablesSelectButtonInv"
      }
    },
    "callComponentLoaderInitOpen": {
      "module": "vb/action/builtin/callComponentMethodAction",
      "parameters": {
        "component": "{{ document.getElementById('loader_init') }}",
        "method": "open"
      },
      "outcomes": {
        "success": "callRestPostBssElectronicInvoiceManager"
      }
    },
    "callComponentLoaderInitClose": {
      "module": "vb/action/builtin/callComponentMethodAction",
      "parameters": {
        "component": "{{ document.getElementById('loader_init') }}",
        "method": "close"
      },
      "outcomes": {
        "success": "fireNotification3"
      }
    },
    "resetVariablesSelectButtonInv": {
      "module": "vb/action/builtin/resetVariablesAction",
      "parameters": {
        "variables": [
          "$page.variables.SelectButtonInv"
        ]
      }
    },
    "callComponentLoaderInitClose2": {
      "module": "vb/action/builtin/callComponentMethodAction",
      "parameters": {
        "component": "{{ document.getElementById('loader_init') }}",
        "method": "close"
      },
      "outcomes": {
        "success": "fireNotification"
      }
    },
    "resetVariablesSelectButtonInv2": {
      "module": "vb/action/builtin/resetVariablesAction",
      "parameters": {
        "variables": [
          "$page.variables.SelectButtonInv"
        ]
      }
    }
  },
  "variables": {}
}