{
  "description": "",
  "root": "callFunctionQueryStringGeneratorFacs",
  "actions": {
    "callFunctionQueryStringGeneratorFacs": {
      "module": "vb/action/builtin/callModuleFunctionAction",
      "parameters": {
        "module": "[[ $functions ]]",
        "functionName": "QueryStringGeneratorFacs",
        "params": [
          "{{ $page.variables.SearchCustomerQ }}",
          "{{ $page.variables.SearchStatusQ }}",
          "{{ $page.variables.SearchDateInfQ }}"          ,
          "{{ $page.variables.SearchDateSupQ }}",
          "{{ $page.variables.SearchTranscationQ }}"
        ]
      },
      "outcomes": {
        "success": "assignVariables"
      }
    },
    "assignVariables": {
      "module": "vb/action/builtin/assignVariablesAction",
      "parameters": {
        "$page.variables.StringQuery": {
          "source": "{{ $chain.results.callFunctionQueryStringGeneratorFacs }}"
        }
      },
      "outcomes": {
        "success": "fireDataProviderEventBillingsFacturarListSDP2"
      }
    },
    "callChainLoadDataBillingsFacturacionLotes": {
      "module": "vb/action/builtin/callChainAction",
      "parameters": {
        "id": "LoadDataBillingsFacturacionLotes"
      }
    },
    "fireDataProviderEventBillingsFacturarListSDP2": {
      "module": "vb/action/builtin/fireDataProviderEventAction",
      "parameters": {
        "target": "[[ $page.variables.billingsFacturarListSDP2 ]]",
        "refresh": null
      },
      "outcomes": {
        "success": "callChainLoadDataBillingsFacturacionLotes"
      }
    }
  },
  "variables": {}
}