{
  "description": "",
  "root": "callComponentLoaderInitOpen",
  "actions": {
    "fireNotification": {
      "module": "vb/action/builtin/fireNotificationEventAction",
      "parameters": {
        "target": "leaf",
        "summary": "[[ $chain.results.callRestPostBSSELECTSTANDRECIPMANAGEP2BssElectronicStandardReciptManager.message.summary ]]",
        "type": "error",
        "displayMode": "persist"
      },
      "outcomes": {
        "success": "resetVariablesSelectButtonStan"
      }
    },
    "callRestPostBSSELECTSTANDRECIPMANAGEP2BssElectronicStandardReciptManager": {
      "module": "vb/action/builtin/restAction",
      "parameters": {
        "endpoint": "ics4/postBSS_ELECT_STAND_RECIP_MANAG_EP2_0BssElectronicStandardReciptManager",
        "body": "{{ $page.variables.ReceiptsTImbrado }}"
      },
      "outcomes": {
        "failure": "callComponentLoaderInitClose2",
        "success": "callComponentLoaderInitClose"
      }
    },
    "fireNotification2": {
      "module": "vb/action/builtin/fireNotificationEventAction",
      "parameters": {
        "target": "leaf",
        "summary": "Timbrado Complemento de pago",
        "message": "Proceso de timbrado iniciado",
        "type": "confirmation",
        "displayMode": "transient"
      },
      "outcomes": {
        "success": "resetVariablesSelectButtonStan2"
      }
    },
    "callComponentLoaderInitOpen": {
      "module": "vb/action/builtin/callComponentMethodAction",
      "parameters": {
        "component": "{{ document.getElementById('loader_init') }}",
        "method": "open"
      },
      "outcomes": {
        "success": "callRestPostBSSELECTSTANDRECIPMANAGEP2BssElectronicStandardReciptManager"
      }
    },
    "callComponentLoaderInitClose": {
      "module": "vb/action/builtin/callComponentMethodAction",
      "parameters": {
        "component": "{{ document.getElementById('loader_init') }}",
        "method": "close"
      },
      "outcomes": {
        "success": "fireNotification2"
      }
    },
    "callComponentLoaderInitClose2": {
      "module": "vb/action/builtin/callComponentMethodAction",
      "parameters": {
        "component": "{{ document.getElementById('loader_init') }}",
        "method": "close"
      },
      "outcomes": {
        "success": "fireNotification"
      }
    },
    "resetVariablesSelectButtonStan": {
      "module": "vb/action/builtin/resetVariablesAction",
      "parameters": {
        "variables": [
          "$page.variables.SelectButtonStan"
        ]
      }
    },
    "resetVariablesSelectButtonStan2": {
      "module": "vb/action/builtin/resetVariablesAction",
      "parameters": {
        "variables": [
          "$page.variables.SelectButtonStan"
        ]
      }
    }
  },
  "variables": {}
}