{
  "root": "deleteBillingsFacturar",
  "variables": {
    "billingsFacturarId": {
      "type": "string",
      "input": "fromCaller",
      "required": true
    }
  },
  "actions": {
    "deleteBillingsFacturar": {
      "module": "vb/action/builtin/restAction",
      "parameters": {
        "endpoint": "businessObjects/delete_BillingsFacturar",
        "uriParams": {
          "BillingsFacturar_Id": "[[ $variables.billingsFacturarId ]]"
        }
      },
      "outcomes": {
        "success": "resetSelection",
        "failure": "fireErrorNotification"
      }
    },
    "resetSelection": {
      "module": "vb/action/builtin/resetVariablesAction",
      "parameters": {
        "variables": [
          "[[ '$page.variables.oj_table_202941639_1SelectedId' ]]"
        ]
      },
      "outcomes": {
        "success": "refreshDataProvider"
      },
      "description": "Resets selection variable",
      "label": "Reset selection"
    },
    "refreshDataProvider": {
      "module": "vb/action/builtin/fireDataProviderEventAction",
      "outcomes": {
        "success": "fireSuccessNotification"
      },
      "parameters": {
        "refresh": null,
        "target": "[[ $page.variables.myPDPBillingsFacturacion ]]"
      }
    },
    "fireSuccessNotification": {
      "module": "vb/action/builtin/fireNotificationEventAction",
      "parameters": {
        "summary": "Proceso de facturación iniciado correctamente",
        "message": "[[ ' Factura con id: [' + $variables.billingsFacturarId + ']  inició proceso' ]]",
        "type": "confirmation",
        "displayMode": "persist"
      },
      "outcomes": {
        "success": "callChainLoadDataBillingsFacturacion"
      }
    },
    "fireErrorNotification": {
      "module": "vb/action/builtin/fireNotificationEventAction",
      "parameters": {
        "summary": "Delete failed",
        "message": "[[ 'Could not delete data: status ' + $chain.results.deleteBillingsFacturar.status ]]",
        "type": "error",
        "displayMode": "persist"
      }
    },
    "callChainLoadDataBillingsFacturacion": {
      "module": "vb/action/builtin/callChainAction",
      "parameters": {
        "id": "LoadDataBillingsFacturacion"
      }
    }
  }
}