{
    "fields": [
        {
            "type": "number",
            "name": "id",
            "internal": true,
            "key": true,
            "oid": "b77c02d5-ed89-4d13-850b-43243b02212a",
            "required": true,
            "unique": true,
            "displayLabel": "Id"
        },
        {
            "type": "datetime",
            "name": "creationDate",
            "internal": true,
            "oid": "dd5937e1-018c-47ca-a1cb-37bad5f8bf1a",
            "displayLabel": "Created"
        },
        {
            "type": "datetime",
            "name": "lastUpdateDate",
            "internal": true,
            "oid": "5bbd1a0d-2e97-4980-936e-06e7b24da7be",
            "displayLabel": "Last Updated"
        },
        {
            "type": "string",
            "name": "createdBy",
            "internal": true,
            "oid": "c305eebb-8b78-4240-998f-a4375a81a7da",
            "displayLabel": "Created By",
            "required": true
        },
        {
            "type": "string",
            "name": "lastUpdatedBy",
            "internal": true,
            "oid": "98173221-be4b-4024-8329-d5a73c435c1d",
            "displayLabel": "Last Updated By"
        },
{
            "type": "number",
            "hidden": true,
            "name": "abcsChangeNumber",
            "internal": true,
            "oid": "6ee6398d-2b30-4086-b5e8-4230446b7b14",
            "displayLabel": "<internal>"
        },
        {
            "type": "string",
            "name": "customerTransactionId",
            "oid": "bb39d6cf-8521-46f2-bf6a-ae6232497709",
            "displayLabel": "CustomerTransactionId"
        }        ,
        {
            "type": "string",
            "name": "enteredAmount",
            "oid": "0ecefceb-c3dc-4f05-b65b-437558e43a5c",
            "displayLabel": "enteredAmount"
        },
        {
            "type": "string",
            "name": "billToCustomerName",
            "oid": "dee88ca2-475f-4fee-8311-bfedb9c951de",
            "displayLabel": "BillToCustomerName"
        }        ,
        {
            "type": "string",
            "name": "creationDateCredit",
            "oid": "f83ef4d6-c34e-49c3-a08e-8e45c0edeb66",
            "displayLabel": "creationDateCredit"
        }        ,
        {
            "type": "string",
            "name": "createdByCredit",
            "oid": "acd6b302-3438-4c3e-9c09-ecd296eaa7a7",
            "displayLabel": "CreatedByCredit"
        }        ,
{
            "type": "string",
            "name": "transactionDate",
            "oid": "9c0e3df4-2148-43cb-be20-5720c9a67bc7",
            "displayLabel": "transactionDate"
        },
        {
            "type": "string",
            "name": "timbradoInterfaceEstatus",
            "oid": "87214704-1fa4-4131-a8ee-9e610e9177d7",
            "displayLabel": "timbradoInterfaceEstatus"
        }
    ],
    "name": "Memos",
    "oid": "758d196d-820a-4958-92b7-c3dc5103c22d",
    "displayLabel": "Memos"
}