{
  "description": "",
  "root": "navigateToCancelcloudList",
  "actions": {
    "navigateToCancelcloudList": {
      "module": "vb/action/builtin/navigateAction",
      "parameters": {
        "page": "cancelcloud-list"
      }
    }
  },
  "variables": {}
}